Chapitre 17 Les séries chronologiques | Statistiques et Probabilités avec R, RStudio et le Tidyverse
…
Pour ce chapitre, nous utiliserons la librairie gapminder.

17.1 Mise en place

library(tidyverse)
library(questionr)
library(gapminder)
library(knitr)

canada <- 
  gapminder %>% 
  filter(country %in% c("Canada")) %>%
  select(year,lifeExp)
canada
#> # A tibble: 12 x 2
#>    year lifeExp
#>   <int>   <dbl>
#> 1  1952    68.8
#> 2  1957    70.0
#> 3  1962    71.3
#> 4  1967    72.1
#> 5  1972    72.9
#> 6  1977    74.2
#> # ... with 6 more rows
…
