Statistiques et Probabilités avec R, RStudio et le Tidyverse
…
8.3.1 Mise en place

Pour débuter, il faut remplir la feuille Google Sheets qui contiendra les données. Elle se trouve à l’adresse suivante MetM.

8.3.2 Chargement de la feuille Google

Pour charger la feuille Google, nous utiliserons l’extension googlesheets.

goo <- gs_url("https://docs.google.com/spreadsheets/d/16-kbE75LlCnj2GL9h6Ku9r6GnXbUfRGGxkq_vjiSoyc/edit?usp=sharing")
MetM <- gs_read(goo)

Nous pouvons visualiser les données:

MetM
## # A tibble: 12 x 7
##   Nom         Bleu Orange  Vert Jaune  Brun Rouge
##   <chr>      <int>  <int> <int> <int> <int> <int>
## 1 Marc-André     6      5     7     8     5     8
## 2 Mélanie        5      5     8     8     6     5
## 3 Anna           6      6     6     5     4     4
## 4 Laurent        5      5     7     5     6     5
## 5 Carolyne       7      4     4     7     6     4
## 6 Pascal         8      7     6     5     5     5
## # ... with 6 more rows

Pour être en mesure de travailler avec ses données, nous allons les transformer en tidy data avec la fonction elongate chargée dans cette feuille.

## # A tibble: 413 x 2
##   Nom        Couleur
##   <chr>      <fct>  
## 1 Mélanie    Jaune  
## 2 Justin     Orange 
## 3 Justin     Brun   
## 4 Pascal     Bleu   
## 5 Laurent    Vert   
## 6 Marc-André Orange 
## # ... with 407 more rows
…
