Statistiques et Probabilités avec R et le Tidyverse
…
n’ont pas de noms de lignes (rownames)

autorisent des noms de colonnes invalides pour les data frames (espaces, caractères spéciaux, nombres…)1

s’affichent plus intelligemment que les data frames : seules les premières lignes sont affichées, ainsi que quelques informations supplémentaires utiles (dimensions, types des colonnes…)

ne font pas de partial matching sur les noms de colonnes2

affichent un avertissement si on essaie d’accéder à une colonne qui n’existe pas

Pour autant, les tibbles restent compatibles avec les data frames. On peut ainsi facilement convertir un data frame en tibble avec as_tibble :

as_tibble(mtcars)
## # A tibble: 32 x 11
##     mpg   cyl  disp    hp  drat    wt  qsec    vs    am  gear  carb
## * <dbl> <dbl> <dbl> <dbl> <dbl> <dbl> <dbl> <dbl> <dbl> <dbl> <dbl>
## 1  21.0    6.  160.  110.  3.90  2.62  16.5    0.    1.    4.    4.
## 2  21.0    6.  160.  110.  3.90  2.88  17.0    0.    1.    4.    4.
## 3  22.8    4.  108.   93.  3.85  2.32  18.6    1.    1.    4.    1.
## 4  21.4    6.  258.  110.  3.08  3.22  19.4    1.    0.    3.    1.
## 5  18.7    8.  360.  175.  3.15  3.44  17.0    0.    0.    3.    2.
## 6  18.1    6.  225.  105.  2.76  3.46  20.2    1.    0.    3.    1.
## # ... with 26 more rows

Si le data frame d’origine a des rownames, on peut d’abord les convertir en colonnes avec rownames_to_columns :

d <- as_tibble(rownames_to_column(mtcars))
d
## # A tibble: 32 x 12
##   rowname        mpg   cyl  disp    hp  drat    wt  qsec    vs    am  gear
##   <chr>        <dbl> <dbl> <dbl> <dbl> <dbl> <dbl> <dbl> <dbl> <dbl> <dbl>
## 1 Mazda RX4     21.0    6.  160.  110.  3.90  2.62  16.5    0.    1.    4.
## 2 Mazda RX4 W~  21.0    6.  160.  110.  3.90  2.88  17.0    0.    1.    4.
## 3 Datsun 710    22.8    4.  108.   93.  3.85  2.32  18.6    1.    1.    4.
## 4 Hornet 4 Dr~  21.4    6.  258.  110.  3.08  3.22  19.4    1.    0.    3.
## 5 Hornet Spor~  18.7    8.  360.  175.  3.15  3.44  17.0    0.    0.    3.
## 6 Valiant       18.1    6.  225.  105.  2.76  3.46  20.2    1.    0.    3.
## # ... with 26 more rows, and 1 more variable: carb <dbl>
…
