Statistiques et Probabilités avec R, RStudio et le Tidyverse
…
planes

weather

Pour en savoir plus sur une base de données particulière, par exemple airlines vous pouvez utilisez la commande ?airlines.

5.3.2 Les variables quantitatives discrètes

On observe ce type de variable lorsque les valeurs sont énumérables, c’est-à-dire lorsqu’il n’existe pas de valeur possible entre deux valeurs consécutives. Par exemple, la variable nombre de cours suivis pendant cette session est une variable quantitative discrète. Les valeurs de ces variables peuvent être : 3, 4, 5, 6, 7,… Il est impossible de suivre 4,6 cours durant une session.

La base de données planes contient certaines variables quantitatives discrètes.

planes
## # A tibble: 3,322 x 9
##   tailnum  year type       manufacturer  model  engines seats speed engine
##   <chr>   <int> <chr>      <chr>         <chr>    <int> <int> <int> <chr> 
## 1 N10156   2004 Fixed win~ EMBRAER       EMB-1~       2    55    NA Turbo~
## 2 N102UW   1998 Fixed win~ AIRBUS INDUS~ A320-~       2   182    NA Turbo~
## 3 N103US   1999 Fixed win~ AIRBUS INDUS~ A320-~       2   182    NA Turbo~
## 4 N104UW   1999 Fixed win~ AIRBUS INDUS~ A320-~       2   182    NA Turbo~
## 5 N10575   2002 Fixed win~ EMBRAER       EMB-1~       2    55    NA Turbo~
## 6 N105UW   1999 Fixed win~ AIRBUS INDUS~ A320-~       2   182    NA Turbo~
## # ... with 3,316 more rows
…
